(module "CAPPM7343X310N" (layer F.Cu)
  (descr "Case D-ren1")
  (tags "Capacitor Polarised")
  (attr smd)
  (fp_text reference C** (at 0 0) (layer F.SilkS)
    (effects (font (size 1.27 1.27) (thickness 0.254)))
  )
  (fp_text user %R (at 0 0) (layer F.Fab)
    (effects (font (size 1.27 1.27) (thickness 0.254)))
  )
  (fp_text value "CAPPM7343X310N" (at 0 0) (layer F.SilkS) hide
    (effects (font (size 1.27 1.27) (thickness 0.254)))
  )
  (fp_line (start -4.525 -2.55) (end 4.525 -2.55) (layer F.CrtYd) (width 0.05))
  (fp_line (start 4.525 -2.55) (end 4.525 2.55) (layer F.CrtYd) (width 0.05))
  (fp_line (start 4.525 2.55) (end -4.525 2.55) (layer F.CrtYd) (width 0.05))
  (fp_line (start -4.525 2.55) (end -4.525 -2.55) (layer F.CrtYd) (width 0.05))
  (fp_line (start -3.65 -2.15) (end 3.65 -2.15) (layer F.Fab) (width 0.1))
  (fp_line (start 3.65 -2.15) (end 3.65 2.15) (layer F.Fab) (width 0.1))
  (fp_line (start 3.65 2.15) (end -3.65 2.15) (layer F.Fab) (width 0.1))
  (fp_line (start -3.65 2.15) (end -3.65 -2.15) (layer F.Fab) (width 0.1))
  (fp_line (start -3.65 -0.975) (end -2.475 -2.15) (layer F.Fab) (width 0.1))
  (fp_line (start 3.65 -2.15) (end -4.275 -2.15) (layer F.SilkS) (width 0.2))
  (fp_line (start -3.65 2.15) (end 3.65 2.15) (layer F.SilkS) (width 0.2))
  (pad 1 smd rect (at -3.1 0 0) (size 2.35 2.45) (layers F.Cu F.Paste F.Mask))
  (pad 2 smd rect (at 3.1 0 0) (size 2.35 2.45) (layers F.Cu F.Paste F.Mask))
  (model 293D106X0035D2TE3.stp
    (at (xyz -0.141338579298 -0.14448819198008 0.023228345424172))
    (scale (xyz 1 1 1))
    (rotate (xyz -90 0 -90))
  )
)
