(footprint "LED_LTST-C235KGKRKT" (version 20221018) (generator pcbnew)
  (layer "F.Cu")
  (attr smd)
  (fp_text reference "REF**" (at -0.06725 -2.005658) (layer "F.SilkS")
      (effects (font (size 0.655162 0.655162) (thickness 0.15)))
    (tstamp 4f8aecfd-d7ac-4ba1-8bb5-de33ba036d82)
  )
  (fp_text value "LED_LTST-C235KGKRKT" (at 5.76141 1.92975) (layer "F.Fab")
      (effects (font (size 0.650505 0.650505) (thickness 0.15)))
    (tstamp 87f777ab-2141-46bf-bf23-295ce2d7c658)
  )
  (fp_line (start -2.54 -1.27) (end -2.29 -1.27)
    (stroke (width 0.2) (type default)) (layer "F.SilkS") (tstamp 07750da4-6974-4f11-95b7-17617b696a5f))
  (fp_line (start -2.54 1.32) (end -2.54 -1.27)
    (stroke (width 0.2) (type default)) (layer "F.SilkS") (tstamp 6227b05c-38bf-46ed-a565-4e85e86b67c9))
  (fp_line (start -2.29 1.32) (end -2.54 1.32)
    (stroke (width 0.2) (type default)) (layer "F.SilkS") (tstamp 5e8d8bae-2aef-4223-bb5b-5c9946c56af4))
  (fp_line (start -1.05 -1.15) (end 1.05 -1.15)
    (stroke (width 0.01) (type solid)) (layer "Edge.Cuts") (tstamp 84157ee0-48de-41e3-9597-5e8f4c56951d))
  (fp_line (start -1.05 1.15) (end -1.05 -1.15)
    (stroke (width 0.01) (type solid)) (layer "Edge.Cuts") (tstamp a09e410d-4372-473b-ae83-d966fe77e02a))
  (fp_line (start 1.05 -1.15) (end 1.05 1.15)
    (stroke (width 0.01) (type solid)) (layer "Edge.Cuts") (tstamp b34db4ea-d021-4976-9361-a292b5f04310))
  (fp_line (start 1.05 1.15) (end -1.05 1.15)
    (stroke (width 0.01) (type solid)) (layer "Edge.Cuts") (tstamp fe902fe4-f6fd-4396-83ae-2360e2b375b0))
  (fp_line (start -2.8 -1.4) (end 2.8 -1.4)
    (stroke (width 0.05) (type solid)) (layer "F.CrtYd") (tstamp 012d8453-b528-4c29-b2a8-55149e42313e))
  (fp_line (start -2.8 1.4) (end -2.8 -1.4)
    (stroke (width 0.05) (type solid)) (layer "F.CrtYd") (tstamp c972fc8f-2f11-45a6-8327-b34170e69e9c))
  (fp_line (start 2.8 -1.4) (end 2.8 1.4)
    (stroke (width 0.05) (type solid)) (layer "F.CrtYd") (tstamp b5e8af2c-e970-472b-91cc-4e3bd653eecf))
  (fp_line (start 2.8 1.4) (end -2.8 1.4)
    (stroke (width 0.05) (type solid)) (layer "F.CrtYd") (tstamp 4ac3ec04-7e51-43ef-b790-be268c249c69))
  (fp_line (start -1 -1) (end 1 -1)
    (stroke (width 0.127) (type solid)) (layer "F.Fab") (tstamp e2efa22c-6fef-4e1a-a27e-66d81c745f1f))
  (fp_line (start -1 1) (end -1 -1)
    (stroke (width 0.127) (type solid)) (layer "F.Fab") (tstamp 24f74739-e85b-4137-a079-9ef5df43486d))
  (fp_line (start 1 -1) (end 1 1)
    (stroke (width 0.127) (type solid)) (layer "F.Fab") (tstamp 4ffd647a-388b-4f9e-a378-07fb0f54088e))
  (fp_line (start 1 1) (end -1 1)
    (stroke (width 0.127) (type solid)) (layer "F.Fab") (tstamp 357812a4-1549-4b18-85d7-fa130efb9299))
  (fp_circle (center -2.39 -1.28) (end -2.29 -1.28)
    (stroke (width 0.2) (type solid)) (fill none) (layer "F.Fab") (tstamp 847be77b-1055-47f8-8742-1e644f15a965))
  (pad "1" smd rect (at -1.8 -0.5) (size 1 0.5) (layers "F.Cu" "F.Paste" "F.Mask")
    (solder_mask_margin 0.102) (tstamp f19439d3-20b8-4ea2-83a5-febf118e8c63))
  (pad "2" smd rect (at 1.8 -0.5) (size 1 0.5) (layers "F.Cu" "F.Paste" "F.Mask")
    (solder_mask_margin 0.102) (tstamp af481e05-99a8-49e7-ba79-2edbdd12bb5b))
  (pad "3" smd rect (at 1.8 0.5) (size 1 0.5) (layers "F.Cu" "F.Paste" "F.Mask")
    (solder_mask_margin 0.102) (tstamp 72927488-7d53-40bf-bed9-ad928120137e))
  (pad "4" smd rect (at -1.8 0.5) (size 1 0.5) (layers "F.Cu" "F.Paste" "F.Mask")
    (solder_mask_margin 0.102) (tstamp b2184bf0-2528-4430-8873-c576309ccc36))
  (model ":KICAD7_3DMODEL_DIR:LTST-C235KGKRKT.step"
    (offset (xyz 0 0 0))
    (scale (xyz 1 1 1))
    (rotate (xyz 90 0 -90))
  )
)
