(footprint "SOIC127P1032X265-16N(3160)" (version 20221018) (generator pcbnew)
  (layer "F.Cu")
  (descr "RW-16 (SOIC)")
  (tags "Integrated Circuit")
  (attr smd)
  (fp_text reference "IC**" (at -9.7 -3.5) (layer "F.SilkS")
      (effects (font (size 1 1) (thickness 0.25)))
    (tstamp 41fb1342-52a1-425f-87d1-3fc60e6735ff)
  )
  (fp_text value "SOIC127P1032X265-16N(3160)" (at -0.8 -7.45) (layer "F.SilkS") hide
      (effects (font (size 1 1) (thickness 0.25)))
    (tstamp b3f77640-1f07-4c1c-a3df-c255ad8a21c5)
  )
  (fp_text user "${REFERENCE}" (at -2.4 7.65) (layer "F.Fab") hide
      (effects (font (size 1.27 1.27) (thickness 0.254)))
    (tstamp f2225bcd-fa79-44a3-86cb-02e0501c1645)
  )
  (fp_line (start -5.675 -5.12) (end -3.75 -5.12)
    (stroke (width 0.2) (type solid)) (layer "F.SilkS") (tstamp 054b6d36-30f1-4d58-a295-c437c9bed275))
  (fp_line (start -3.4 -5.15) (end 3.4 -5.15)
    (stroke (width 0.2) (type solid)) (layer "F.SilkS") (tstamp 8cc505aa-0310-4a73-9935-942d772af4f9))
  (fp_line (start -3.4 5.15) (end -3.4 -5.15)
    (stroke (width 0.2) (type solid)) (layer "F.SilkS") (tstamp 485fa990-d7a3-45a6-9bc4-ba90e4d831fa))
  (fp_line (start 3.4 -5.15) (end 3.4 5.15)
    (stroke (width 0.2) (type solid)) (layer "F.SilkS") (tstamp 0c21ab59-93b0-4e7e-8c43-efc9851950b0))
  (fp_line (start 3.4 5.15) (end -3.4 5.15)
    (stroke (width 0.2) (type solid)) (layer "F.SilkS") (tstamp 4e516a22-88c2-4a5f-a250-113d7e82ed95))
  (fp_line (start -5.925 -5.5) (end 5.925 -5.5)
    (stroke (width 0.05) (type solid)) (layer "F.CrtYd") (tstamp 6127696c-d17d-4962-9bb1-c1c3764df4de))
  (fp_line (start -5.925 5.5) (end -5.925 -5.5)
    (stroke (width 0.05) (type solid)) (layer "F.CrtYd") (tstamp c42e4be0-9174-41ad-8821-2fa99f3baaba))
  (fp_line (start 5.925 -5.5) (end 5.925 5.5)
    (stroke (width 0.05) (type solid)) (layer "F.CrtYd") (tstamp 328affe8-8eed-4a2f-82d7-4f5375868420))
  (fp_line (start 5.925 5.5) (end -5.925 5.5)
    (stroke (width 0.05) (type solid)) (layer "F.CrtYd") (tstamp 8d7810e4-4b31-4751-a87e-7adf9e9b5e85))
  (fp_line (start -3.75 -5.15) (end 3.75 -5.15)
    (stroke (width 0.1) (type solid)) (layer "F.Fab") (tstamp 89ba6d45-9f7d-40d3-b81d-e4c8f4f62c90))
  (fp_line (start -3.75 -3.88) (end -2.48 -5.15)
    (stroke (width 0.1) (type solid)) (layer "F.Fab") (tstamp 5b336a12-0aeb-4eaa-9010-0f389b74db47))
  (fp_line (start -3.75 5.15) (end -3.75 -5.15)
    (stroke (width 0.1) (type solid)) (layer "F.Fab") (tstamp 40c52ae2-410f-4918-88e5-3fb786e7ed26))
  (fp_line (start 3.75 -5.15) (end 3.75 5.15)
    (stroke (width 0.1) (type solid)) (layer "F.Fab") (tstamp 605ba7d2-f4e8-4a5a-bb95-82d1b2611472))
  (fp_line (start 3.75 5.15) (end -3.75 5.15)
    (stroke (width 0.1) (type solid)) (layer "F.Fab") (tstamp 889c4c30-3300-49b2-8d94-c70cb9a3d231))
  (pad "1" smd rect (at -4.712 -4.445 90) (size 0.65 1.925) (layers "F.Cu" "F.Paste" "F.Mask") (tstamp 4d425711-b777-4124-94e4-3aaac1041d78))
  (pad "2" smd rect (at -4.712 -3.175 90) (size 0.65 1.925) (layers "F.Cu" "F.Paste" "F.Mask") (tstamp 640597a7-220e-450a-a4b3-fcbb5db23d7b))
  (pad "3" smd rect (at -4.712 -1.905 90) (size 0.65 1.925) (layers "F.Cu" "F.Paste" "F.Mask") (tstamp 956a021f-f799-4881-889b-a67475454a79))
  (pad "4" smd rect (at -4.712 -0.635 90) (size 0.65 1.925) (layers "F.Cu" "F.Paste" "F.Mask") (tstamp f860cac0-0e71-42f5-bda8-e946243c8939))
  (pad "5" smd rect (at -4.712 0.635 90) (size 0.65 1.925) (layers "F.Cu" "F.Paste" "F.Mask") (tstamp 5ac0a7d4-fbff-41e7-b847-35d4c48a6ab7))
  (pad "6" smd rect (at -4.712 1.905 90) (size 0.65 1.925) (layers "F.Cu" "F.Paste" "F.Mask") (tstamp 8248554f-70a3-49ea-96ab-31bdfa8da1e5))
  (pad "7" smd rect (at -4.712 3.175 90) (size 0.65 1.925) (layers "F.Cu" "F.Paste" "F.Mask") (tstamp 10e7a333-c7f3-4d9c-9844-6b59a556e172))
  (pad "8" smd rect (at -4.712 4.445 90) (size 0.65 1.925) (layers "F.Cu" "F.Paste" "F.Mask") (tstamp 19d4e152-d8f8-4ae5-a258-ff101d68443f))
  (pad "9" smd rect (at 4.712 4.445 90) (size 0.65 1.925) (layers "F.Cu" "F.Paste" "F.Mask") (tstamp 63b747ee-e086-47d6-8158-b3fc1d708569))
  (pad "10" smd rect (at 4.712 3.175 90) (size 0.65 1.925) (layers "F.Cu" "F.Paste" "F.Mask") (tstamp 56be9276-ef3d-4c24-9b35-ddae0c416c52))
  (pad "11" smd rect (at 4.712 1.905 90) (size 0.65 1.925) (layers "F.Cu" "F.Paste" "F.Mask") (tstamp 586ca9be-e085-402b-bfde-d6ff9d370dc3))
  (pad "12" smd rect (at 4.712 0.635 90) (size 0.65 1.925) (layers "F.Cu" "F.Paste" "F.Mask") (tstamp af464f4c-064a-4816-b155-9a541a16c6ff))
  (pad "13" smd rect (at 4.712 -0.635 90) (size 0.65 1.925) (layers "F.Cu" "F.Paste" "F.Mask") (tstamp 23a8f1b2-b771-43b4-abb1-05864852ad95))
  (pad "14" smd rect (at 4.712 -1.905 90) (size 0.65 1.925) (layers "F.Cu" "F.Paste" "F.Mask") (tstamp 08257e82-556e-41e6-9a2a-0b560f2ee1b5))
  (pad "15" smd rect (at 4.712 -3.175 90) (size 0.65 1.925) (layers "F.Cu" "F.Paste" "F.Mask") (tstamp 3e508665-b993-4099-803b-738252c721a0))
  (pad "16" smd rect (at 4.712 -4.445 90) (size 0.65 1.925) (layers "F.Cu" "F.Paste" "F.Mask") (tstamp 01826c7e-1849-4185-b1b0-5567e102691d))
  (model "${KICAD7_3DMODEL_DIR}/ADUM3160BRWZ.STEP"
    (offset (xyz 0 0 0))
    (scale (xyz 1 1 1))
    (rotate (xyz -90 0 0))
  )
)
