(footprint "SOT65P210X110-6N" (version 20221018) (generator pcbnew)
  (layer "F.Cu")
  (descr "SC-88(SOT-363) CASE 419B-02 ISSUE Y")
  (tags "Transistor")
  (attr smd)
  (fp_text reference "Q**" (at -1.524 -2.54) (layer "F.SilkS")
      (effects (font (size 1.27 1.27) (thickness 0.254)))
    (tstamp 2b39c265-378c-456c-beb0-ffc5b7ce7ec9)
  )
  (fp_text value "SOT65P210X110-6N" (at 0.762 3.556) (layer "F.SilkS") hide
      (effects (font (size 1.27 1.27) (thickness 0.254)))
    (tstamp 8670fc99-ef95-4425-8b66-e03b66b28839)
  )
  (fp_text user "${REFERENCE}" (at 0.508 -5.08) (layer "F.Fab")
      (effects (font (size 1.27 1.27) (thickness 0.254)))
    (tstamp 250e1d7c-a12b-48ed-a239-12081b69e46f)
  )
  (fp_line (start -1.475 -1.2) (end -0.425 -1.2)
    (stroke (width 0.2) (type solid)) (layer "F.SilkS") (tstamp 97797a40-2221-472b-8e5d-63039909adc3))
  (fp_line (start -0.075 -1) (end 0.075 -1)
    (stroke (width 0.2) (type solid)) (layer "F.SilkS") (tstamp fee2ed27-fa28-48be-b445-c117181bd8e5))
  (fp_line (start -0.075 1) (end -0.075 -1)
    (stroke (width 0.2) (type solid)) (layer "F.SilkS") (tstamp e7ce560a-d3c9-4bee-bb7b-2712c9c11b19))
  (fp_line (start 0.075 -1) (end 0.075 1)
    (stroke (width 0.2) (type solid)) (layer "F.SilkS") (tstamp 0b84919b-40e6-4a4d-842b-4e6e952f8796))
  (fp_line (start 0.075 1) (end -0.075 1)
    (stroke (width 0.2) (type solid)) (layer "F.SilkS") (tstamp fb49169b-5971-4076-ac25-1372ba1acb60))
  (fp_line (start -1.725 -1.35) (end 1.725 -1.35)
    (stroke (width 0.05) (type solid)) (layer "F.CrtYd") (tstamp 8349c6e4-7603-4ede-b3e7-2e62fba70f1d))
  (fp_line (start -1.725 1.35) (end -1.725 -1.35)
    (stroke (width 0.05) (type solid)) (layer "F.CrtYd") (tstamp 89cdf6f5-9989-40bd-ab3f-2fdf2748d243))
  (fp_line (start 1.725 -1.35) (end 1.725 1.35)
    (stroke (width 0.05) (type solid)) (layer "F.CrtYd") (tstamp b50fe2f7-5095-4870-ab1f-224f220fbfa8))
  (fp_line (start 1.725 1.35) (end -1.725 1.35)
    (stroke (width 0.05) (type solid)) (layer "F.CrtYd") (tstamp 763b6c90-ac98-43ba-bbc5-d661fb4dfda1))
  (fp_line (start -0.625 -1) (end 0.625 -1)
    (stroke (width 0.1) (type solid)) (layer "F.Fab") (tstamp 3d8580b6-f245-4f37-97fa-10dd6c8fd1b2))
  (fp_line (start -0.625 -0.35) (end 0.025 -1)
    (stroke (width 0.1) (type solid)) (layer "F.Fab") (tstamp 6c7813ff-ecc8-480c-8561-bdc03b49ebf3))
  (fp_line (start -0.625 1) (end -0.625 -1)
    (stroke (width 0.1) (type solid)) (layer "F.Fab") (tstamp 1f4a4940-a848-429c-977e-47b2da3c6985))
  (fp_line (start 0.625 -1) (end 0.625 1)
    (stroke (width 0.1) (type solid)) (layer "F.Fab") (tstamp 1032f69c-3bbd-4bd9-9f0c-20b204dabe7c))
  (fp_line (start 0.625 1) (end -0.625 1)
    (stroke (width 0.1) (type solid)) (layer "F.Fab") (tstamp 99872eec-9040-4cb2-ab9f-043c1d57b912))
  (pad "1" smd rect (at -0.95 -0.65 90) (size 0.4 1.05) (layers "F.Cu" "F.Paste" "F.Mask") (tstamp bf9722b0-5dce-4cb2-a337-b94576ceb5eb))
  (pad "2" smd rect (at -0.95 0 90) (size 0.4 1.05) (layers "F.Cu" "F.Paste" "F.Mask") (tstamp 667e6447-abe2-4440-bbad-51fce2e7cf8c))
  (pad "3" smd rect (at -0.95 0.65 90) (size 0.4 1.05) (layers "F.Cu" "F.Paste" "F.Mask") (tstamp 45fb5a3f-e663-491f-b03b-fc78fd936f46))
  (pad "4" smd rect (at 0.95 0.65 90) (size 0.4 1.05) (layers "F.Cu" "F.Paste" "F.Mask") (tstamp 9a71c3b3-1dc6-41a3-9656-fcfe1c1785ba))
  (pad "5" smd rect (at 0.95 0 90) (size 0.4 1.05) (layers "F.Cu" "F.Paste" "F.Mask") (tstamp e45fbdec-f9a8-4ccc-8d50-5e7cb6982a66))
  (pad "6" smd rect (at 0.95 -0.65 90) (size 0.4 1.05) (layers "F.Cu" "F.Paste" "F.Mask") (tstamp f7b3e138-029f-420b-bf19-7a9f14e5c75f))
  (model "MBT3904DW1T3G.stp"
    (offset (xyz 0 0 0))
    (scale (xyz 1 1 1))
    (rotate (xyz 0 0 0))
  )
  (model ":KICAD7_3DMODEL_DIR:MBT3904DW1T3G.stp"
    (offset (xyz 0 0 0))
    (scale (xyz 1 1 1))
    (rotate (xyz 0 0 0))
  )
)
