
(kicad_symbol_lib (version 20211014) (generator kicad_symbol_editor)
  (symbol "0697W1000-02" (pin_names (offset 1.016)) (in_bom yes) (on_board yes)
    (property "Reference" "F" (id 0) (at -2.54 3.81 0)
      (effects (font (size 1.27 1.27)) (justify bottom left))
    )
    (property "Value" "0697W1000-02" (id 1) (at -2.54 -5.08 0)
      (effects (font (size 1.27 1.27)) (justify bottom left))
    )
    (property "Footprint" "0697W1000-02:FUSRR508W60L835T400H810" (id 2) (at 0 0 0)
      (effects (font (size 1.27 1.27)) (justify bottom) hide)
    )
    (property "MF" "Bel Fuse" (id 4) (at 0 0 0)
      (effects (font (size 1.27 1.27)) (justify bottom) hide)
    )
    (property "MAXIMUM_PACKAGE_HEIGHT" "8.1 mm" (id 5) (at 0 0 0)
      (effects (font (size 1.27 1.27)) (justify bottom) hide)
    )
    (property "Package" "Radial Box  Bel Fuse" (id 6) (at 0 0 0)
      (effects (font (size 1.27 1.27)) (justify bottom) hide)
    )
    (property "Price" "None" (id 7) (at 0 0 0)
      (effects (font (size 1.27 1.27)) (justify bottom) hide)
    )
    (property "Check_prices" "https://www.snapeda.com/parts/0697W1000-02/Bel+Fuse/view-part/?ref=eda" (id 8) (at 0 0 0)
      (effects (font (size 1.27 1.27)) (justify bottom) hide)
    )
    (property "STANDARD" "IPC 7351B" (id 9) (at 0 0 0)
      (effects (font (size 1.27 1.27)) (justify bottom) hide)
    )
    (property "PARTREV" "Jan2019" (id 10) (at 0 0 0)
      (effects (font (size 1.27 1.27)) (justify bottom) hide)
    )
    (property "SnapEDA_Link" "https://www.snapeda.com/parts/0697W1000-02/Bel+Fuse/view-part/?ref=snap" (id 11) (at 0 0 0)
      (effects (font (size 1.27 1.27)) (justify bottom) hide)
    )
    (property "MP" "0697W1000-02" (id 12) (at 0 0 0)
      (effects (font (size 1.27 1.27)) (justify bottom) hide)
    )
    (property "Description" "\n2-Pin Radial Fuse | Rectangular | Time Lag | IEC | Ammo Pack | 1A\n" (id 13) (at 0 0 0)
      (effects (font (size 1.27 1.27)) (justify bottom) hide)
    )
    (property "Availability" "In Stock" (id 14) (at 0 0 0)
      (effects (font (size 1.27 1.27)) (justify bottom) hide)
    )
    (property "MANUFACTURER" "Bel Fuse Inc." (id 15) (at 0 0 0)
      (effects (font (size 1.27 1.27)) (justify bottom) hide)
    )
    (symbol "0697W1000-02_0_0"
      (arc (start 0.0 0.0) (mid -1.905 1.905) (end -3.81 0.0)
        (stroke (width 0.1524) (type default) (color 0 0 0 0))
        (fill (type none))
      )
      (arc (start 3.81 0.0) (mid 1.905 -1.905) (end 0.0 0.0)
        (stroke (width 0.1524) (type default) (color 0 0 0 0))
        (fill (type none))
      )
      (polyline
        (pts (xy 5.08 0.0) (xy 3.81 0.0)) (stroke (width 0.1524))
      )
      (polyline
        (pts (xy -5.08 0.0) (xy -3.81 0.0)) (stroke (width 0.1524))
      )
      (pin passive line (at 7.62 0.0 180.0) (length 2.54)
        (name "~"
          (effects (font (size 1.016 1.016)))
        )
        (number "2"
          (effects (font (size 1.016 1.016)))
        )
      )
      (pin passive line (at -7.62 0.0 0) (length 2.54)
        (name "~"
          (effects (font (size 1.016 1.016)))
        )
        (number "1"
          (effects (font (size 1.016 1.016)))
        )
      )
    )
  )
)