(kicad_symbol_lib (version 20211014) (generator SamacSys_ECAD_Model)
  (symbol "44123" (in_bom yes) (on_board yes)
    (property "Reference" "T" (at 26.67 7.62 0)
      (effects (font (size 1.27 1.27)) (justify left top))
    )
    (property "Value" "44123" (at 26.67 5.08 0)
      (effects (font (size 1.27 1.27)) (justify left top))
    )
    (property "Footprint" "44123" (at 26.67 -94.92 0)
      (effects (font (size 1.27 1.27)) (justify left top) hide)
    )
    (property "Datasheet" "https://componentsearchengine.com/Datasheets/2/44123.pdf" (at 26.67 -194.92 0)
      (effects (font (size 1.27 1.27)) (justify left top) hide)
    )
    (property "ki_description" "MYRRA - 44123 - TRANSFORMER, 12V, 2VA" (at 26.67 -294.92 0)
      (effects (font (size 1.27 1.27)) (justify left top) hide)
    )
    (property "Height" "27.3" (at 26.67 -394.92 0)
      (effects (font (size 1.27 1.27)) (justify left top) hide)
    )
    (property "Manufacturer_Name" "MYRRA" (at 26.67 -494.92 0)
      (effects (font (size 1.27 1.27)) (justify left top) hide)
    )
    (property "Manufacturer_Part_Number" "44123" (at 26.67 -594.92 0)
      (effects (font (size 1.27 1.27)) (justify left top) hide)
    )
    (property "Mouser Part Number" "" (at 26.67 -694.92 0)
      (effects (font (size 1.27 1.27)) (justify left top) hide)
    )
    (property "Mouser Price/Stock" "" (at 26.67 -794.92 0)
      (effects (font (size 1.27 1.27)) (justify left top) hide)
    )
    (property "Arrow Part Number" "" (at 26.67 -894.92 0)
      (effects (font (size 1.27 1.27)) (justify left top) hide)
    )
    (property "Arrow Price/Stock" "" (at 26.67 -994.92 0)
      (effects (font (size 1.27 1.27)) (justify left top) hide)
    )
    (rectangle
      (start 5.08 2.54)
      (end 25.4 -5.08)
      (stroke (width 0.254) (type default))
      (fill (type background))
    )
    (pin passive line (at 0 0 0) (length 5.08)
      (name "PRI_1" (effects (font (size 1.27 1.27))))
      (number "1" (effects (font (size 1.27 1.27))))
    )
    (pin passive line (at 0 -2.54 0) (length 5.08)
      (name "PRI_2" (effects (font (size 1.27 1.27))))
      (number "5" (effects (font (size 1.27 1.27))))
    )
    (pin passive line (at 30.48 -2.54 180) (length 5.08)
      (name "SEC_1" (effects (font (size 1.27 1.27))))
      (number "7" (effects (font (size 1.27 1.27))))
    )
    (pin passive line (at 30.48 0 180) (length 5.08)
      (name "SEC_2" (effects (font (size 1.27 1.27))))
      (number "9" (effects (font (size 1.27 1.27))))
    )
  )
)
