(kicad_symbol_lib (version 20220914) (generator kicad_symbol_editor)
  (symbol "282834-2" (pin_names (offset 1.016)) (in_bom yes) (on_board yes)
    (property "Reference" "J" (at -7.62 5.842 0)
      (effects (font (size 1.27 1.27)) (justify left bottom))
    )
    (property "Value" "282834-2" (at -7.62 -5.08 0)
      (effects (font (size 1.27 1.27)) (justify left bottom))
    )
    (property "Footprint" "KiCadFootPrints:TE_282834-2" (at 0 0 0)
      (effects (font (size 1.27 1.27)) (justify bottom) hide)
    )
    (property "Datasheet" "" (at 0 0 0)
      (effects (font (size 1.27 1.27)) hide)
    )
    (symbol "282834-2_0_0"
      (rectangle (start -7.62 5.08) (end 2.54 -2.54)
        (stroke (width 0.254) (type default))
        (fill (type background))
      )
      (pin passive line (at 7.62 2.54 180) (length 5.08)
        (name "1" (effects (font (size 1.016 1.016))))
        (number "1" (effects (font (size 1.016 1.016))))
      )
      (pin passive line (at 7.62 0 180) (length 5.08)
        (name "2" (effects (font (size 1.016 1.016))))
        (number "2" (effects (font (size 1.016 1.016))))
      )
    )
  )
)
