(kicad_symbol_lib (version 20220914) (generator kicad_symbol_editor)
  (symbol "LTST-C235KGKRKT" (pin_names (offset 1.016)) (in_bom yes) (on_board yes)
    (property "Reference" "D" (at -2.0351 6.6103 0)
      (effects (font (size 1.27 1.27)) (justify left bottom))
    )
    (property "Value" "LTST-C235KGKRKT" (at -2.0337 -3.8132 0)
      (effects (font (size 1.27 1.27)) (justify left bottom))
    )
    (property "Footprint" "KiCadFootPrints:LED_LTST-C235KGKRKT" (at 1.27 8.89 0)
      (effects (font (size 1.27 1.27)) (justify bottom) hide)
    )
    (property "Datasheet" "" (at 0 0 0)
      (effects (font (size 1.27 1.27)) hide)
    )
    (symbol "LTST-C235KGKRKT_1_0"
      (polyline
        (pts
          (xy 0 -1.27)
          (xy 0 0)
        )
        (stroke (width 0.254) (type default))
        (fill (type none))
      )
      (polyline
        (pts
          (xy 0 0)
          (xy -5.08 0)
        )
        (stroke (width 0.1524) (type default))
        (fill (type none))
      )
      (polyline
        (pts
          (xy 0 0)
          (xy 0 1.27)
        )
        (stroke (width 0.254) (type default))
        (fill (type none))
      )
      (polyline
        (pts
          (xy 0 0)
          (xy 2.54 1.27)
        )
        (stroke (width 0.254) (type default))
        (fill (type none))
      )
      (polyline
        (pts
          (xy 0.635 1.905)
          (xy -0.762 3.302)
        )
        (stroke (width 0.1524) (type default))
        (fill (type none))
      )
      (polyline
        (pts
          (xy 1.778 2.032)
          (xy 0.381 3.429)
        )
        (stroke (width 0.1524) (type default))
        (fill (type none))
      )
      (polyline
        (pts
          (xy 2.54 -1.27)
          (xy 0 0)
        )
        (stroke (width 0.254) (type default))
        (fill (type none))
      )
      (polyline
        (pts
          (xy 2.54 -1.27)
          (xy 2.54 0)
        )
        (stroke (width 0.254) (type default))
        (fill (type none))
      )
      (polyline
        (pts
          (xy 2.54 0)
          (xy 2.54 1.27)
        )
        (stroke (width 0.254) (type default))
        (fill (type none))
      )
      (polyline
        (pts
          (xy 2.54 0)
          (xy 7.62 0)
        )
        (stroke (width 0.1524) (type default))
        (fill (type none))
      )
      (polyline
        (pts
          (xy -0.762 3.302)
          (xy 0.127 2.921)
          (xy -0.381 2.413)
          (xy -0.762 3.302)
        )
        (stroke (width 0.1524) (type default))
        (fill (type outline))
      )
      (polyline
        (pts
          (xy 0.381 3.429)
          (xy 1.27 3.048)
          (xy 0.762 2.54)
          (xy 0.381 3.429)
        )
        (stroke (width 0.1524) (type default))
        (fill (type outline))
      )
      (text "G" (at 2.54 2.54 0)
        (effects (font (size 1.778 1.778)) (justify left bottom))
      )
      (pin passive line (at -7.62 0 0) (length 2.54)
        (name "~" (effects (font (size 1.016 1.016))))
        (number "1" (effects (font (size 1.016 1.016))))
      )
      (pin passive line (at 10.16 0 180) (length 2.54)
        (name "~" (effects (font (size 1.016 1.016))))
        (number "2" (effects (font (size 1.016 1.016))))
      )
    )
    (symbol "LTST-C235KGKRKT_2_0"
      (polyline
        (pts
          (xy 0 -1.27)
          (xy 0 0)
        )
        (stroke (width 0.254) (type default))
        (fill (type none))
      )
      (polyline
        (pts
          (xy 0 0)
          (xy -5.08 0)
        )
        (stroke (width 0.1524) (type default))
        (fill (type none))
      )
      (polyline
        (pts
          (xy 0 0)
          (xy 0 1.27)
        )
        (stroke (width 0.254) (type default))
        (fill (type none))
      )
      (polyline
        (pts
          (xy 0 0)
          (xy 2.54 1.27)
        )
        (stroke (width 0.254) (type default))
        (fill (type none))
      )
      (polyline
        (pts
          (xy 0.635 1.905)
          (xy -0.762 3.302)
        )
        (stroke (width 0.1524) (type default))
        (fill (type none))
      )
      (polyline
        (pts
          (xy 1.778 2.032)
          (xy 0.381 3.429)
        )
        (stroke (width 0.1524) (type default))
        (fill (type none))
      )
      (polyline
        (pts
          (xy 2.54 -1.27)
          (xy 0 0)
        )
        (stroke (width 0.254) (type default))
        (fill (type none))
      )
      (polyline
        (pts
          (xy 2.54 -1.27)
          (xy 2.54 0)
        )
        (stroke (width 0.254) (type default))
        (fill (type none))
      )
      (polyline
        (pts
          (xy 2.54 0)
          (xy 2.54 1.27)
        )
        (stroke (width 0.254) (type default))
        (fill (type none))
      )
      (polyline
        (pts
          (xy 2.54 0)
          (xy 7.62 0)
        )
        (stroke (width 0.1524) (type default))
        (fill (type none))
      )
      (polyline
        (pts
          (xy -0.762 3.302)
          (xy 0.127 2.921)
          (xy -0.381 2.413)
          (xy -0.762 3.302)
        )
        (stroke (width 0.1524) (type default))
        (fill (type outline))
      )
      (polyline
        (pts
          (xy 0.381 3.429)
          (xy 1.27 3.048)
          (xy 0.762 2.54)
          (xy 0.381 3.429)
        )
        (stroke (width 0.1524) (type default))
        (fill (type outline))
      )
      (text "R" (at 2.54 2.54 0)
        (effects (font (size 1.778 1.778)) (justify left bottom))
      )
      (pin passive line (at 10.16 0 180) (length 2.54)
        (name "~" (effects (font (size 1.016 1.016))))
        (number "3" (effects (font (size 1.016 1.016))))
      )
      (pin passive line (at -7.62 0 0) (length 2.54)
        (name "~" (effects (font (size 1.016 1.016))))
        (number "4" (effects (font (size 1.016 1.016))))
      )
    )
  )
)
