(kicad_symbol_lib (version 20220914) (generator kicad_symbol_editor)
  (symbol "MBT3904DW1T3G" (in_bom yes) (on_board yes)
    (property "Reference" "Q" (at 19.05 7.62 0)
      (effects (font (size 1.27 1.27)) (justify left top))
    )
    (property "Value" "MBT3904DW1T3G" (at 19.05 5.08 0)
      (effects (font (size 1.27 1.27)) (justify left top))
    )
    (property "Footprint" "KiCadFootPrints:SOT65P210X110-6N" (at 19.05 -94.92 0)
      (effects (font (size 1.27 1.27)) (justify left top) hide)
    )
    (property "Datasheet" "http://www.onsemi.com/pub/Collateral/MBT3904DW1T1-D.PDF" (at 19.05 -194.92 0)
      (effects (font (size 1.27 1.27)) (justify left top) hide)
    )
    (symbol "MBT3904DW1T3G_1_1"
      (rectangle (start 5.08 2.54) (end 17.78 -7.62)
        (stroke (width 0.254) (type default))
        (fill (type background))
      )
      (pin passive line (at 0 0 0) (length 5.08)
        (name "E2" (effects (font (size 1.27 1.27))))
        (number "1" (effects (font (size 1.27 1.27))))
      )
      (pin passive line (at 0 -2.54 0) (length 5.08)
        (name "B2" (effects (font (size 1.27 1.27))))
        (number "2" (effects (font (size 1.27 1.27))))
      )
      (pin passive line (at 0 -5.08 0) (length 5.08)
        (name "C1" (effects (font (size 1.27 1.27))))
        (number "3" (effects (font (size 1.27 1.27))))
      )
      (pin passive line (at 22.86 -5.08 180) (length 5.08)
        (name "E1" (effects (font (size 1.27 1.27))))
        (number "4" (effects (font (size 1.27 1.27))))
      )
      (pin passive line (at 22.86 -2.54 180) (length 5.08)
        (name "B1" (effects (font (size 1.27 1.27))))
        (number "5" (effects (font (size 1.27 1.27))))
      )
      (pin passive line (at 22.86 0 180) (length 5.08)
        (name "C2" (effects (font (size 1.27 1.27))))
        (number "6" (effects (font (size 1.27 1.27))))
      )
    )
  )
)
