(kicad_symbol_lib (version 20220914) (generator kicad_symbol_editor)
  (symbol "TB006_-508-02BE" (pin_names (offset 1.016)) (in_bom yes) (on_board yes)
    (property "Reference" "J" (at -5.58 5.08 0)
      (effects (font (size 1.27 1.27)) (justify left bottom))
    )
    (property "Value" "TB006_-508-02BE" (at -5.08 -5.08 0)
      (effects (font (size 1.27 1.27)) (justify left bottom))
    )
    (property "Footprint" "KiCadFootPrints:CUI_TB006 -508-02BE" (at 0 0 0)
      (effects (font (size 1.27 1.27)) (justify bottom))
    )
    (property "Datasheet" "" (at 0 0 0)
      (effects (font (size 1.27 1.27)) hide)
    )
    (symbol "TB006_-508-02BE_0_0"
      (rectangle (start -5.08 -2.54) (end 5.08 5.08)
        (stroke (width 0.254) (type default))
        (fill (type background))
      )
      (pin passive line (at -10.16 2.54 0) (length 5.08)
        (name "1" (effects (font (size 1.016 1.016))))
        (number "1" (effects (font (size 1.016 1.016))))
      )
      (pin passive line (at -10.16 0 0) (length 5.08)
        (name "2" (effects (font (size 1.016 1.016))))
        (number "2" (effects (font (size 1.016 1.016))))
      )
    )
  )
)
