(kicad_symbol_lib (version 20220914) (generator kicad_symbol_editor)
  (symbol "USB-B-S-X-X-TH" (pin_names (offset 1.016)) (in_bom yes) (on_board yes)
    (property "Reference" "J" (at -5.08 8.89 0)
      (effects (font (size 1.27 1.27)) (justify left bottom))
    )
    (property "Value" "USB-B-S-X-X-TH" (at -5.08 -12.7 0)
      (effects (font (size 1.27 1.27)) (justify left bottom))
    )
    (property "Footprint" "KiCadFootPrints:SAMTEC_USB-B-S-X-X-TH" (at 0 0 0)
      (effects (font (size 1.27 1.27)) (justify bottom) hide)
    )
    (property "Datasheet" "" (at 0 0 0)
      (effects (font (size 1.27 1.27)) hide)
    )
    (symbol "USB-B-S-X-X-TH_0_0"
      (rectangle (start -5.08 -10.16) (end 5.08 7.62)
        (stroke (width 0.254) (type default))
        (fill (type background))
      )
      (pin power_in line (at -10.16 5.08 0) (length 5.08)
        (name "VCC" (effects (font (size 1.016 1.016))))
        (number "1" (effects (font (size 1.016 1.016))))
      )
      (pin bidirectional line (at -10.16 2.54 0) (length 5.08)
        (name "D-" (effects (font (size 1.016 1.016))))
        (number "2" (effects (font (size 1.016 1.016))))
      )
      (pin bidirectional line (at -10.16 0 0) (length 5.08)
        (name "D+" (effects (font (size 1.016 1.016))))
        (number "3" (effects (font (size 1.016 1.016))))
      )
      (pin power_in line (at -10.16 -2.54 0) (length 5.08)
        (name "GND" (effects (font (size 1.016 1.016))))
        (number "4" (effects (font (size 1.016 1.016))))
      )
      (pin passive line (at -10.16 -7.62 0) (length 5.08)
        (name "SHIELD" (effects (font (size 1.016 1.016))))
        (number "S1" (effects (font (size 1.016 1.016))))
      )
      (pin passive line (at -10.16 -7.62 0) (length 5.08)
        (name "SHIELD" (effects (font (size 1.016 1.016))))
        (number "S2" (effects (font (size 1.016 1.016))))
      )
    )
  )
)
