
(footprint RESC1005X35N (layer F.Cu) (tedit 66F51DB7)
  (descr "")
  (attr smd)
  (fp_text reference REF** (at 0.3 -0.88 0) (layer F.SilkS)
    (effects (font (size 0.393700787402 0.393700787402) (thickness 0.15)))
  )
  (fp_text value RESC1005X35N (at 2.05 0.88 0) (layer F.Fab)
    (effects (font (size 0.393700787402 0.393700787402) (thickness 0.15)))
  )
  (pad 1 smd rect (at -0.457 0.0) (size 0.49 0.6) (layers F.Cu F.Mask F.Paste) (solder_mask_margin 0.102))
  (pad 2 smd rect (at 0.457 0.0) (size 0.49 0.6) (layers F.Cu F.Mask F.Paste) (solder_mask_margin 0.102))
  (fp_line (start 0.53 0.28) (end -0.53 0.28) (layer F.Fab) (width 0.127))
  (fp_line (start 0.53 -0.28) (end -0.53 -0.28) (layer F.Fab) (width 0.127))
  (fp_line (start 0.53 0.28) (end 0.53 -0.28) (layer F.Fab) (width 0.127))
  (fp_line (start -0.53 0.28) (end -0.53 -0.28) (layer F.Fab) (width 0.127))
  (fp_line (start -0.95 0.55) (end 0.95 0.55) (layer F.CrtYd) (width 0.05))
  (fp_line (start -0.95 -0.55) (end 0.95 -0.55) (layer F.CrtYd) (width 0.05))
  (fp_line (start -0.95 0.55) (end -0.95 -0.55) (layer F.CrtYd) (width 0.05))
  (fp_line (start 0.95 0.55) (end 0.95 -0.55) (layer F.CrtYd) (width 0.05))
)