(footprint "DIP794W45P254L959H508Q8"
	(version 20240108)
	(generator "pcbnew")
	(generator_version "8.0")
	(layer "F.Cu")
	(property "Reference" "REF**"
		(at -0.565 -5.835 0)
		(layer "F.SilkS")
		(uuid "9002e1a4-def8-4811-b526-213c0fa832c1")
		(effects
			(font
				(size 1 1)
				(thickness 0.15)
			)
		)
	)
	(property "Value" "DIP794W45P254L959H508Q8"
		(at 10.865 5.835 0)
		(layer "F.Fab")
		(uuid "9308da5f-fd02-4b96-9540-d042550d64ca")
		(effects
			(font
				(size 1 1)
				(thickness 0.15)
			)
		)
	)
	(property "Footprint" ""
		(at 0 0 0)
		(layer "F.Fab")
		(hide yes)
		(uuid "2b0cb427-52aa-4af9-80fc-0108e0744cd4")
		(effects
			(font
				(size 1.27 1.27)
				(thickness 0.15)
			)
		)
	)
	(property "Datasheet" ""
		(at 0 0 0)
		(layer "F.Fab")
		(hide yes)
		(uuid "e64d77f0-5c0d-4deb-a22a-7aa86bdf7cca")
		(effects
			(font
				(size 1.27 1.27)
				(thickness 0.15)
			)
		)
	)
	(property "Description" ""
		(at 0 0 0)
		(layer "F.Fab")
		(hide yes)
		(uuid "72f9d740-3948-4cec-bba7-c61a389e01ef")
		(effects
			(font
				(size 1.27 1.27)
				(thickness 0.15)
			)
		)
	)
	(attr through_hole)
	(fp_line
		(start -3.175 -4.795)
		(end 3.175 -4.795)
		(stroke
			(width 0.127)
			(type solid)
		)
		(layer "F.SilkS")
		(uuid "48af8606-9b16-4b67-91a2-204abf0a23de")
	)
	(fp_line
		(start -3.175 4.795)
		(end 3.175 4.795)
		(stroke
			(width 0.127)
			(type solid)
		)
		(layer "F.SilkS")
		(uuid "981d3f55-0e04-415b-924e-d32943886725")
	)
	(fp_circle
		(center -5.035 -3.81)
		(end -4.935 -3.81)
		(stroke
			(width 0.2)
			(type solid)
		)
		(fill none)
		(layer "F.SilkS")
		(uuid "79bf8f4c-6f28-40d5-8843-2482ff22607e")
	)
	(fp_line
		(start -4.785 -5.045)
		(end -4.785 5.045)
		(stroke
			(width 0.05)
			(type solid)
		)
		(layer "F.CrtYd")
		(uuid "bd94c52c-af57-4615-8adb-d8866e24c45d")
	)
	(fp_line
		(start 4.785 -5.045)
		(end -4.785 -5.045)
		(stroke
			(width 0.05)
			(type solid)
		)
		(layer "F.CrtYd")
		(uuid "ec4b90fe-c9ec-4440-b363-e5d51e038829")
	)
	(fp_line
		(start 4.785 -5.045)
		(end 4.785 5.045)
		(stroke
			(width 0.05)
			(type solid)
		)
		(layer "F.CrtYd")
		(uuid "c0687cb8-9854-4e20-adfe-c6af58432bbb")
	)
	(fp_line
		(start 4.785 5.045)
		(end -4.785 5.045)
		(stroke
			(width 0.05)
			(type solid)
		)
		(layer "F.CrtYd")
		(uuid "4099db0f-95bd-4e5f-94e6-df88ef7f1b17")
	)
	(fp_line
		(start -3.175 -4.795)
		(end -3.175 4.795)
		(stroke
			(width 0.127)
			(type solid)
		)
		(layer "F.Fab")
		(uuid "18a9491b-f9b6-48b2-ab1e-d995db697cb7")
	)
	(fp_line
		(start -3.175 -4.795)
		(end 3.175 -4.795)
		(stroke
			(width 0.127)
			(type solid)
		)
		(layer "F.Fab")
		(uuid "7194de9b-edca-4701-a51d-2375cf79e829")
	)
	(fp_line
		(start -3.175 4.795)
		(end 3.175 4.795)
		(stroke
			(width 0.127)
			(type solid)
		)
		(layer "F.Fab")
		(uuid "8f954ffe-682d-4452-bedf-66adc822bb40")
	)
	(fp_line
		(start 3.175 -4.795)
		(end 3.175 4.795)
		(stroke
			(width 0.127)
			(type solid)
		)
		(layer "F.Fab")
		(uuid "fe84dd40-4f0c-4170-a046-bb0a4189d762")
	)
	(fp_circle
		(center -5.035 -3.81)
		(end -4.935 -3.81)
		(stroke
			(width 0.2)
			(type solid)
		)
		(fill none)
		(layer "F.Fab")
		(uuid "f3117514-dcfd-4d26-9f53-a26782c438c1")
	)
	(pad "1" thru_hole rect
		(at -3.97 -3.81)
		(size 1.13 1.13)
		(drill 0.74)
		(layers "*.Cu" "*.Mask")
		(remove_unused_layers no)
		(solder_mask_margin 0.102)
		(uuid "419d89f0-0dde-4df2-ad78-ce25e6cf1ded")
	)
	(pad "2" thru_hole circle
		(at -3.97 -1.27)
		(size 1.13 1.13)
		(drill 0.74)
		(layers "*.Cu" "*.Mask")
		(remove_unused_layers no)
		(solder_mask_margin 0.102)
		(uuid "905831ba-8295-4572-86c9-6eeb05211fb5")
	)
	(pad "3" thru_hole circle
		(at -3.97 1.27)
		(size 1.13 1.13)
		(drill 0.74)
		(layers "*.Cu" "*.Mask")
		(remove_unused_layers no)
		(solder_mask_margin 0.102)
		(uuid "cee3d049-fd07-4694-a980-f512ce8f0242")
	)
	(pad "4" thru_hole circle
		(at -3.97 3.81)
		(size 1.13 1.13)
		(drill 0.74)
		(layers "*.Cu" "*.Mask")
		(remove_unused_layers no)
		(solder_mask_margin 0.102)
		(uuid "740122f6-2204-4f53-95c1-1577fd64f8bf")
	)
	(pad "5" thru_hole circle
		(at 3.97 3.81)
		(size 1.13 1.13)
		(drill 0.74)
		(layers "*.Cu" "*.Mask")
		(remove_unused_layers no)
		(solder_mask_margin 0.102)
		(uuid "c1c56d01-3007-4cdb-9e7c-1df2d98ad36b")
	)
	(pad "6" thru_hole circle
		(at 3.97 1.27)
		(size 1.13 1.13)
		(drill 0.74)
		(layers "*.Cu" "*.Mask")
		(remove_unused_layers no)
		(solder_mask_margin 0.102)
		(uuid "0f2cacee-f38a-483c-8fdc-7b02858453c9")
	)
	(pad "7" thru_hole circle
		(at 3.97 -1.27)
		(size 1.13 1.13)
		(drill 0.74)
		(layers "*.Cu" "*.Mask")
		(remove_unused_layers no)
		(solder_mask_margin 0.102)
		(uuid "dcd2f7fc-1485-4a26-89b3-4a2125c6d817")
	)
	(pad "8" thru_hole circle
		(at 3.97 -3.81)
		(size 1.13 1.13)
		(drill 0.74)
		(layers "*.Cu" "*.Mask")
		(remove_unused_layers no)
		(solder_mask_margin 0.102)
		(uuid "4732e003-befb-4639-b1fd-f940b07190fa")
	)
	(model "${KICAD7_3DMODEL_DIR}/LM555CN_NOPB.step"
		(offset
			(xyz 0 0 0)
		)
		(scale
			(xyz 1 1 1)
		)
		(rotate
			(xyz -90 0 0)
		)
	)
)
