(footprint "RESC1005X37N"
	(version 20240108)
	(generator "pcbnew")
	(generator_version "8.0")
	(layer "F.Cu")
	(property "Reference" "REF**"
		(at 0.29 -0.88 0)
		(layer "F.SilkS")
		(uuid "13a81aff-43c7-4598-9259-488cf4a26969")
		(effects
			(font
				(size 0.393701 0.393701)
				(thickness 0.098425)
			)
		)
	)
	(property "Value" "RESC1005X37N"
		(at 2.04 0.88 0)
		(layer "F.Fab")
		(uuid "099c8ce3-6996-4ee0-b177-7a51436e5b55")
		(effects
			(font
				(size 0.393701 0.393701)
				(thickness 0.098425)
			)
		)
	)
	(property "Footprint" ""
		(at 0 0 0)
		(layer "F.Fab")
		(hide yes)
		(uuid "33d0dcbc-ad1b-4359-a0df-d510be8074f9")
		(effects
			(font
				(size 1.27 1.27)
				(thickness 0.15)
			)
		)
	)
	(property "Datasheet" ""
		(at 0 0 0)
		(layer "F.Fab")
		(hide yes)
		(uuid "50103474-c0f1-48bd-8c2e-32ad22238587")
		(effects
			(font
				(size 1.27 1.27)
				(thickness 0.15)
			)
		)
	)
	(property "Description" ""
		(at 0 0 0)
		(layer "F.Fab")
		(hide yes)
		(uuid "91ecd9ed-a5fd-4f4d-bb2f-58a98058ae4f")
		(effects
			(font
				(size 1.27 1.27)
				(thickness 0.15)
			)
		)
	)
	(attr smd)
	(fp_line
		(start -0.965 -0.55)
		(end 0.965 -0.55)
		(stroke
			(width 0.05)
			(type solid)
		)
		(layer "F.CrtYd")
		(uuid "a326673e-6dce-43ca-b474-0fdc08c971e2")
	)
	(fp_line
		(start -0.965 0.55)
		(end -0.965 -0.55)
		(stroke
			(width 0.05)
			(type solid)
		)
		(layer "F.CrtYd")
		(uuid "5bc1f600-993c-4bf3-8297-4ad38427be4e")
	)
	(fp_line
		(start -0.965 0.55)
		(end 0.965 0.55)
		(stroke
			(width 0.05)
			(type solid)
		)
		(layer "F.CrtYd")
		(uuid "5ddf3528-baeb-4bfc-a4f3-4c8aa029125c")
	)
	(fp_line
		(start 0.965 0.55)
		(end 0.965 -0.55)
		(stroke
			(width 0.05)
			(type solid)
		)
		(layer "F.CrtYd")
		(uuid "1df94092-8867-40aa-8ee4-3b04b400efdb")
	)
	(fp_line
		(start -0.55 0.28)
		(end -0.55 -0.28)
		(stroke
			(width 0.127)
			(type solid)
		)
		(layer "F.Fab")
		(uuid "aa1c9cfa-ea05-4ab7-a140-990c393d2e51")
	)
	(fp_line
		(start 0.55 -0.28)
		(end -0.55 -0.28)
		(stroke
			(width 0.127)
			(type solid)
		)
		(layer "F.Fab")
		(uuid "a9fd7788-038c-474c-a005-cd5c49494777")
	)
	(fp_line
		(start 0.55 0.28)
		(end -0.55 0.28)
		(stroke
			(width 0.127)
			(type solid)
		)
		(layer "F.Fab")
		(uuid "57732d12-9757-4f54-98a7-a782232854fa")
	)
	(fp_line
		(start 0.55 0.28)
		(end 0.55 -0.28)
		(stroke
			(width 0.127)
			(type solid)
		)
		(layer "F.Fab")
		(uuid "6e43fa64-0c66-4423-891b-661a42be5823")
	)
	(pad "1" smd rect
		(at -0.435 0)
		(size 0.56 0.6)
		(layers "F.Cu" "F.Paste" "F.Mask")
		(solder_mask_margin 0.102)
		(uuid "36d08077-088e-4249-8bf1-b77b4e7868a7")
	)
	(pad "2" smd rect
		(at 0.435 0)
		(size 0.56 0.6)
		(layers "F.Cu" "F.Paste" "F.Mask")
		(solder_mask_margin 0.102)
		(uuid "ba68446a-a9b4-4950-a082-f1593ccc1610")
	)
	(model "${KICAD7_3DMODEL_DIR}/CR0402AFX-1001GAS.step"
		(offset
			(xyz 0 0 0)
		)
		(scale
			(xyz 1 1 1)
		)
		(rotate
			(xyz -90 0 0)
		)
	)
)
