(kicad_sch (version 20230121) (generator eeschema)

  (uuid 4294e5fc-9a90-4a29-a892-a0079019e12e)

  (paper "A4")

  (lib_symbols
    (symbol "5787834-2:5787834-2" (in_bom yes) (on_board yes)
      (property "Reference" "J" (at 21.59 12.7 0)
        (effects (font (size 1.27 1.27)) (justify left top))
      )
      (property "Value" "5787834-2" (at 21.59 10.16 0)
        (effects (font (size 1.27 1.27)) (justify left top))
      )
      (property "Footprint" "KiCadFootPrints:57878342" (at 21.59 -89.84 0)
        (effects (font (size 1.27 1.27)) (justify left top) hide)
      )
      (property "Datasheet" "https://www.te.com/commerce/DocumentDelivery/DDEController?Action=showdoc&DocId=Customer+Drawing%7F5787834%7FC%7Fpdf%7FEnglish%7FENG_CD_5787834_C.pdf%7F5787834-2" (at 21.59 -189.84 0)
        (effects (font (size 1.27 1.27)) (justify left top) hide)
      )
      (property "ki_description" "Body Features: Shell Plating Material Tin | Shell Plating Finish Bright | Offset 0 MM | Connector Profile Standard | Configuration Features: Number of Ports 1 | Number of Positions 4 | Contact Features: Contact Current Rating (Max) 1 AMP | Contact Mating Area Plating Material Thickness 29.92 MICIN | Contact Mating Area Plating Material Gold or Gold Flash over Palladium Nickel | Contact Mating Area Plating Material Thickness .76 MICM | Dimensions: PCB Thickness (Recommended) 1.57 MM | PCB Thickness (Recommen" (at 0 0 0)
        (effects (font (size 1.27 1.27)) hide)
      )
      (symbol "5787834-2_1_1"
        (rectangle (start 5.08 7.62) (end 20.32 -7.62)
          (stroke (width 0.254) (type default))
          (fill (type background))
        )
        (pin passive line (at 12.7 12.7 270) (length 5.08)
          (name "1" (effects (font (size 1.27 1.27))))
          (number "1" (effects (font (size 1.27 1.27))))
        )
        (pin passive line (at 10.16 12.7 270) (length 5.08)
          (name "2" (effects (font (size 1.27 1.27))))
          (number "2" (effects (font (size 1.27 1.27))))
        )
        (pin passive line (at 10.16 -12.7 90) (length 5.08)
          (name "3" (effects (font (size 1.27 1.27))))
          (number "3" (effects (font (size 1.27 1.27))))
        )
        (pin passive line (at 12.7 -12.7 90) (length 5.08)
          (name "4" (effects (font (size 1.27 1.27))))
          (number "4" (effects (font (size 1.27 1.27))))
        )
        (pin passive line (at 0 0 0) (length 5.08)
          (name "MH1" (effects (font (size 1.27 1.27))))
          (number "MH1" (effects (font (size 1.27 1.27))))
        )
        (pin passive line (at 25.4 0 180) (length 5.08)
          (name "MH2" (effects (font (size 1.27 1.27))))
          (number "MH2" (effects (font (size 1.27 1.27))))
        )
      )
    )
    (symbol "PTH:PTH" (pin_numbers hide) (pin_names (offset 0) hide) (in_bom yes) (on_board yes)
      (property "Reference" "PTH" (at 0 0 0)
        (effects (font (size 1.27 1.27)) hide)
      )
      (property "Value" "" (at 0 0 0)
        (effects (font (size 1.27 1.27)) hide)
      )
      (property "Footprint" "KiCadFootPrints:PTH" (at 0 -2.54 0)
        (effects (font (size 1.27 1.27)) hide)
      )
      (property "Datasheet" "" (at 0 0 0)
        (effects (font (size 1.27 1.27)) hide)
      )
      (symbol "PTH_0_1"
        (circle (center 0 0) (radius 1.27)
          (stroke (width 0) (type default))
          (fill (type none))
        )
      )
      (symbol "PTH_1_1"
        (pin input line (at 0 0 0) (length 0)
          (name "" (effects (font (size 0 0))))
          (number "1" (effects (font (size 0 0))))
        )
      )
    )
    (symbol "USB1040-XX-X-X_REVC:USB1040-XX-X-X_REVC" (pin_names (offset 1.016)) (in_bom yes) (on_board yes)
      (property "Reference" "J" (at -5.0852 7.6278 0)
        (effects (font (size 1.27 1.27)) (justify left bottom))
      )
      (property "Value" "USB1040-XX-X-X_REVC" (at -5.088 -10.1761 0)
        (effects (font (size 1.27 1.27)) (justify left bottom))
      )
      (property "Footprint" "KiCadFootPrints:GCT_USB1040-XX-X-X_REVC" (at 0 0 0)
        (effects (font (size 1.27 1.27)) (justify bottom) hide)
      )
      (property "Datasheet" "" (at 0 0 0)
        (effects (font (size 1.27 1.27)) hide)
      )
      (symbol "USB1040-XX-X-X_REVC_0_0"
        (rectangle (start -5.08 -7.62) (end 5.08 7.62)
          (stroke (width 0.254) (type default))
          (fill (type background))
        )
        (pin power_in line (at -10.16 5.08 0) (length 5.08)
          (name "VBUS" (effects (font (size 1.016 1.016))))
          (number "1" (effects (font (size 1.016 1.016))))
        )
        (pin bidirectional line (at -10.16 2.54 0) (length 5.08)
          (name "D-" (effects (font (size 1.016 1.016))))
          (number "2" (effects (font (size 1.016 1.016))))
        )
        (pin bidirectional line (at -10.16 0 0) (length 5.08)
          (name "D+" (effects (font (size 1.016 1.016))))
          (number "3" (effects (font (size 1.016 1.016))))
        )
        (pin power_in line (at -10.16 -2.54 0) (length 5.08)
          (name "GND" (effects (font (size 1.016 1.016))))
          (number "4" (effects (font (size 1.016 1.016))))
        )
        (pin power_in line (at -10.16 -5.08 0) (length 5.08)
          (name "SHIELD" (effects (font (size 1.016 1.016))))
          (number "5" (effects (font (size 1.016 1.016))))
        )
        (pin power_in line (at -10.16 -5.08 0) (length 5.08)
          (name "SHIELD" (effects (font (size 1.016 1.016))))
          (number "6" (effects (font (size 1.016 1.016))))
        )
      )
    )
    (symbol "power:GND" (power) (pin_names (offset 0)) (in_bom yes) (on_board yes)
      (property "Reference" "#PWR" (at 0 -6.35 0)
        (effects (font (size 1.27 1.27)) hide)
      )
      (property "Value" "GND" (at 0 -3.81 0)
        (effects (font (size 1.27 1.27)))
      )
      (property "Footprint" "" (at 0 0 0)
        (effects (font (size 1.27 1.27)) hide)
      )
      (property "Datasheet" "" (at 0 0 0)
        (effects (font (size 1.27 1.27)) hide)
      )
      (symbol "GND_0_1"
        (polyline
          (pts
            (xy 0 0)
            (xy 0 -1.27)
            (xy 1.27 -1.27)
            (xy 0 -2.54)
            (xy -1.27 -1.27)
            (xy 0 -1.27)
          )
          (stroke (width 0) (type solid))
          (fill (type none))
        )
      )
      (symbol "GND_1_1"
        (pin power_in line (at 0 0 270) (length 0) hide
          (name "GND" (effects (font (size 1.27 1.27))))
          (number "1" (effects (font (size 1.27 1.27))))
        )
      )
    )
  )


  (wire (pts (xy 81.28 110.49) (xy 71.12 110.49))
    (stroke (width 0) (type default))
    (uuid 0a9614b7-0e12-4a96-a9d6-370e20e9e13e)
  )
  (wire (pts (xy 71.12 110.49) (xy 71.12 107.95))
    (stroke (width 0) (type default))
    (uuid 0e1bbdbc-208c-451c-83da-10e1a320836b)
  )
  (wire (pts (xy 73.66 69.85) (xy 73.66 82.55))
    (stroke (width 0) (type default))
    (uuid 228ca5dd-f88c-4539-8943-edff2d00626e)
  )
  (wire (pts (xy 120.65 95.25) (xy 91.44 95.25))
    (stroke (width 0) (type default))
    (uuid 390c5c6f-2044-41af-be49-3bd8af5397c3)
  )
  (wire (pts (xy 81.28 97.79) (xy 81.28 110.49))
    (stroke (width 0) (type default))
    (uuid 44d17ef1-34e8-4905-8713-7ccfdfb2ad07)
  )
  (wire (pts (xy 88.9 69.85) (xy 73.66 69.85))
    (stroke (width 0) (type default))
    (uuid 48427e42-db65-4f0f-be4b-2cd631040218)
  )
  (wire (pts (xy 91.44 76.2) (xy 71.12 76.2))
    (stroke (width 0) (type default))
    (uuid 4d7cb6a6-053f-430a-b141-e12adebe83f2)
  )
  (wire (pts (xy 71.12 76.2) (xy 71.12 82.55))
    (stroke (width 0) (type default))
    (uuid 720c2a8f-0755-4ba0-b3ec-62e585c8b2fc)
  )
  (wire (pts (xy 120.65 97.79) (xy 81.28 97.79))
    (stroke (width 0) (type default))
    (uuid 8637bed6-e1d8-4072-8a0b-f89074fb1aa5)
  )
  (wire (pts (xy 91.44 95.25) (xy 91.44 76.2))
    (stroke (width 0) (type default))
    (uuid a807d682-4a28-4c68-aa30-2168fa86dd6c)
  )
  (wire (pts (xy 120.65 92.71) (xy 88.9 92.71))
    (stroke (width 0) (type default))
    (uuid c9c2121b-e4ca-46d9-b64c-b99705f94f7e)
  )
  (wire (pts (xy 88.9 92.71) (xy 88.9 69.85))
    (stroke (width 0) (type default))
    (uuid d0462bb3-0256-4897-bc9d-dc94e20c4df2)
  )

  (label "D+" (at 110.49 97.79 0) (fields_autoplaced)
    (effects (font (size 1.27 1.27)) (justify left bottom))
    (uuid aa47075f-8a1e-4f9a-b305-b52b9b4d1f0b)
  )
  (label "D-" (at 119.38 95.25 0) (fields_autoplaced)
    (effects (font (size 1.27 1.27)) (justify left bottom))
    (uuid b0d7685e-dd19-4769-869a-480c36ff534b)
  )

  (symbol (lib_id "5787834-2:5787834-2") (at 60.96 95.25 0) (unit 1)
    (in_bom yes) (on_board yes) (dnp no)
    (uuid 21a3c211-1f1d-43b2-bce1-d9cedb5c1761)
    (property "Reference" "J2" (at 72.39 78.74 0)
      (effects (font (size 1.27 1.27)))
    )
    (property "Value" "5787834-2" (at 72.39 78.74 0)
      (effects (font (size 1.27 1.27)) hide)
    )
    (property "Footprint" "KiCadFootPrints:57878342" (at 82.55 185.09 0)
      (effects (font (size 1.27 1.27)) (justify left top) hide)
    )
    (property "Datasheet" "https://www.te.com/commerce/DocumentDelivery/DDEController?Action=showdoc&DocId=Customer+Drawing%7F5787834%7FC%7Fpdf%7FEnglish%7FENG_CD_5787834_C.pdf%7F5787834-2" (at 82.55 285.09 0)
      (effects (font (size 1.27 1.27)) (justify left top) hide)
    )
    (pin "3" (uuid 44893007-e774-4199-a5d2-739ca4b4ffda))
    (pin "4" (uuid c7657a24-72d4-4cb5-914f-581c0ed67b45))
    (pin "MH2" (uuid db705130-fbd4-434a-b843-9d4c39a85cf3))
    (pin "2" (uuid 6deb6293-d8d3-4776-b8cc-cba278b810b7))
    (pin "MH1" (uuid 838cbafb-5397-4bca-8f8a-ac1e7c134f5f))
    (pin "1" (uuid b82b5504-3a52-467e-a0bb-9292acec15f0))
    (instances
      (project "USB B"
        (path "/4294e5fc-9a90-4a29-a892-a0079019e12e"
          (reference "J2") (unit 1)
        )
      )
    )
  )

  (symbol (lib_id "power:GND") (at 86.36 95.25 0) (unit 1)
    (in_bom yes) (on_board yes) (dnp no) (fields_autoplaced)
    (uuid 3d2ee782-aa77-45d1-865d-ba1056b2a082)
    (property "Reference" "#PWR02" (at 86.36 101.6 0)
      (effects (font (size 1.27 1.27)) hide)
    )
    (property "Value" "GND" (at 86.36 100.33 0)
      (effects (font (size 1.27 1.27)))
    )
    (property "Footprint" "" (at 86.36 95.25 0)
      (effects (font (size 1.27 1.27)) hide)
    )
    (property "Datasheet" "" (at 86.36 95.25 0)
      (effects (font (size 1.27 1.27)) hide)
    )
    (pin "1" (uuid 3a5100e4-ccbf-4252-8839-c44b8639397d))
    (instances
      (project "USB B"
        (path "/4294e5fc-9a90-4a29-a892-a0079019e12e"
          (reference "#PWR02") (unit 1)
        )
      )
    )
  )

  (symbol (lib_id "power:GND") (at 73.66 107.95 0) (unit 1)
    (in_bom yes) (on_board yes) (dnp no) (fields_autoplaced)
    (uuid 419d5aad-ef9a-4c46-8eb0-8fbdc51313b4)
    (property "Reference" "#PWR05" (at 73.66 114.3 0)
      (effects (font (size 1.27 1.27)) hide)
    )
    (property "Value" "GND" (at 73.66 113.03 0)
      (effects (font (size 1.27 1.27)))
    )
    (property "Footprint" "" (at 73.66 107.95 0)
      (effects (font (size 1.27 1.27)) hide)
    )
    (property "Datasheet" "" (at 73.66 107.95 0)
      (effects (font (size 1.27 1.27)) hide)
    )
    (pin "1" (uuid e24f9b88-296f-4efd-a5cf-babaf3735fca))
    (instances
      (project "USB B"
        (path "/4294e5fc-9a90-4a29-a892-a0079019e12e"
          (reference "#PWR05") (unit 1)
        )
      )
    )
  )

  (symbol (lib_id "power:GND") (at 120.65 100.33 0) (unit 1)
    (in_bom yes) (on_board yes) (dnp no) (fields_autoplaced)
    (uuid 6cbe2911-1456-4d85-a5d3-4af32f3f73c4)
    (property "Reference" "#PWR04" (at 120.65 106.68 0)
      (effects (font (size 1.27 1.27)) hide)
    )
    (property "Value" "GND" (at 120.65 105.41 0)
      (effects (font (size 1.27 1.27)))
    )
    (property "Footprint" "" (at 120.65 100.33 0)
      (effects (font (size 1.27 1.27)) hide)
    )
    (property "Datasheet" "" (at 120.65 100.33 0)
      (effects (font (size 1.27 1.27)) hide)
    )
    (pin "1" (uuid 115b71f1-58b4-4b03-a9dc-79ec9a3450e6))
    (instances
      (project "USB B"
        (path "/4294e5fc-9a90-4a29-a892-a0079019e12e"
          (reference "#PWR04") (unit 1)
        )
      )
    )
  )

  (symbol (lib_id "power:GND") (at 60.96 95.25 0) (unit 1)
    (in_bom yes) (on_board yes) (dnp no) (fields_autoplaced)
    (uuid 751de38b-39e3-46ec-a5b6-b234dec59d69)
    (property "Reference" "#PWR01" (at 60.96 101.6 0)
      (effects (font (size 1.27 1.27)) hide)
    )
    (property "Value" "GND" (at 60.96 100.33 0)
      (effects (font (size 1.27 1.27)))
    )
    (property "Footprint" "" (at 60.96 95.25 0)
      (effects (font (size 1.27 1.27)) hide)
    )
    (property "Datasheet" "" (at 60.96 95.25 0)
      (effects (font (size 1.27 1.27)) hide)
    )
    (pin "1" (uuid edfc7276-681d-48e3-982a-950079aefac0))
    (instances
      (project "USB B"
        (path "/4294e5fc-9a90-4a29-a892-a0079019e12e"
          (reference "#PWR01") (unit 1)
        )
      )
    )
  )

  (symbol (lib_id "power:GND") (at 120.65 102.87 0) (unit 1)
    (in_bom yes) (on_board yes) (dnp no) (fields_autoplaced)
    (uuid 95f89a40-9b6b-4408-9fc2-1630d47ca36b)
    (property "Reference" "#PWR03" (at 120.65 109.22 0)
      (effects (font (size 1.27 1.27)) hide)
    )
    (property "Value" "GND" (at 120.65 107.95 0)
      (effects (font (size 1.27 1.27)))
    )
    (property "Footprint" "" (at 120.65 102.87 0)
      (effects (font (size 1.27 1.27)) hide)
    )
    (property "Datasheet" "" (at 120.65 102.87 0)
      (effects (font (size 1.27 1.27)) hide)
    )
    (pin "1" (uuid 20e25649-9b76-4b66-a0c0-c4f9c32223c1))
    (instances
      (project "USB B"
        (path "/4294e5fc-9a90-4a29-a892-a0079019e12e"
          (reference "#PWR03") (unit 1)
        )
      )
    )
  )

  (symbol (lib_id "PTH:PTH") (at 95.25 119.38 0) (unit 1)
    (in_bom yes) (on_board yes) (dnp no) (fields_autoplaced)
    (uuid c182ff31-78e5-48d9-ac12-18fa005923e9)
    (property "Reference" "PTH1" (at 95.25 119.38 0)
      (effects (font (size 1.27 1.27)) hide)
    )
    (property "Value" "~" (at 95.25 119.38 0)
      (effects (font (size 1.27 1.27)) hide)
    )
    (property "Footprint" "KiCadFootPrints:PTH" (at 95.25 121.92 0)
      (effects (font (size 1.27 1.27)) hide)
    )
    (property "Datasheet" "" (at 95.25 119.38 0)
      (effects (font (size 1.27 1.27)) hide)
    )
    (pin "1" (uuid 58e718c7-217d-41d5-8141-7f3c8eb59d27))
    (instances
      (project "USB B"
        (path "/4294e5fc-9a90-4a29-a892-a0079019e12e"
          (reference "PTH1") (unit 1)
        )
      )
    )
  )

  (symbol (lib_id "power:GND") (at 95.25 119.38 0) (unit 1)
    (in_bom yes) (on_board yes) (dnp no) (fields_autoplaced)
    (uuid c6c101bf-12fb-4f86-bed9-dddf81c7255a)
    (property "Reference" "#PWR06" (at 95.25 125.73 0)
      (effects (font (size 1.27 1.27)) hide)
    )
    (property "Value" "GND" (at 95.25 124.46 0)
      (effects (font (size 1.27 1.27)))
    )
    (property "Footprint" "" (at 95.25 119.38 0)
      (effects (font (size 1.27 1.27)) hide)
    )
    (property "Datasheet" "" (at 95.25 119.38 0)
      (effects (font (size 1.27 1.27)) hide)
    )
    (pin "1" (uuid df97d807-2475-4581-9d71-5b31f8cf8fff))
    (instances
      (project "USB B"
        (path "/4294e5fc-9a90-4a29-a892-a0079019e12e"
          (reference "#PWR06") (unit 1)
        )
      )
    )
  )

  (symbol (lib_id "USB1040-XX-X-X_REVC:USB1040-XX-X-X_REVC") (at 130.81 97.79 0) (unit 1)
    (in_bom yes) (on_board yes) (dnp no)
    (uuid ea796047-5308-451a-b951-e26eb55a28a1)
    (property "Reference" "J1" (at 129.54 83.82 0)
      (effects (font (size 1.27 1.27)) (justify left))
    )
    (property "Value" "USB1040-XX-X-X_REVC" (at 137.16 99.06 0)
      (effects (font (size 1.27 1.27)) (justify left) hide)
    )
    (property "Footprint" "KiCadFootPrints:GCT_USB1040-XX-X-X_REVC" (at 130.81 97.79 0)
      (effects (font (size 1.27 1.27)) (justify bottom) hide)
    )
    (property "Datasheet" "" (at 130.81 97.79 0)
      (effects (font (size 1.27 1.27)) hide)
    )
    (pin "4" (uuid 86343d48-8f2b-4264-838d-b54ab398befc))
    (pin "1" (uuid ecb19cd8-6458-4a79-b2b6-e4d3cacdab2d))
    (pin "5" (uuid ac912e55-93c7-4b7e-b250-bae8881f543b))
    (pin "2" (uuid bad3acc5-5b6b-42bb-b225-09ddb88ae486))
    (pin "3" (uuid 8c741cb0-ce4b-4e4a-9dbd-da15b3d9cb35))
    (pin "6" (uuid 84060070-79fc-4031-b4a6-e86e645a3d2d))
    (instances
      (project "USB B"
        (path "/4294e5fc-9a90-4a29-a892-a0079019e12e"
          (reference "J1") (unit 1)
        )
      )
    )
  )

  (sheet_instances
    (path "/" (page "1"))
  )
)
