%TF.GenerationSoftware,KiCad,Pcbnew,7.0.10*%
%TF.CreationDate,2024-07-12T13:28:19+03:00*%
%TF.ProjectId,Spacers,53706163-6572-4732-9e6b-696361645f70,rev?*%
%TF.SameCoordinates,Original*%
%TF.FileFunction,Legend,Bot*%
%TF.FilePolarity,Positive*%
%FSLAX46Y46*%
G04 Gerber Fmt 4.6, Leading zero omitted, Abs format (unit mm)*
G04 Created by KiCad (PCBNEW 7.0.10) date 2024-07-12 13:28:19*
%MOMM*%
%LPD*%
G01*
G04 APERTURE LIST*
G04 APERTURE END LIST*
G36*
X169869039Y-86633685D02*
G01*
X169914794Y-86686489D01*
X169926000Y-86738000D01*
X169926000Y-104270000D01*
X169906315Y-104337039D01*
X169853511Y-104382794D01*
X169802000Y-104394000D01*
X134490000Y-104394000D01*
X134422961Y-104374315D01*
X134377206Y-104321511D01*
X134366000Y-104270000D01*
X134366000Y-86738000D01*
X134385685Y-86670961D01*
X134438489Y-86625206D01*
X134490000Y-86614000D01*
X169802000Y-86614000D01*
X169869039Y-86633685D01*
G37*
M02*
