(kicad_symbol_lib
	(version 20231120)
	(generator "kicad_symbol_editor")
	(generator_version "8.0")
	(symbol "LM555CN_NOPB"
		(pin_names
			(offset 1.016)
		)
		(exclude_from_sim no)
		(in_bom yes)
		(on_board yes)
		(property "Reference" "U"
			(at -20.32 16.51 0)
			(effects
				(font
					(size 1.27 1.27)
				)
				(justify left bottom)
			)
		)
		(property "Value" "LM555CN_NOPB"
			(at -20.32 -16.51 0)
			(effects
				(font
					(size 1.27 1.27)
				)
				(justify left top)
			)
		)
		(property "Footprint" "Footprint:DIP794W45P254L959H508Q8"
			(at 0 0 0)
			(effects
				(font
					(size 1.27 1.27)
				)
				(justify bottom)
				(hide yes)
			)
		)
		(property "Datasheet" ""
			(at 0 0 0)
			(effects
				(font
					(size 1.27 1.27)
				)
				(hide yes)
			)
		)
		(property "Description" ""
			(at 0 0 0)
			(effects
				(font
					(size 1.27 1.27)
				)
				(hide yes)
			)
		)
		(symbol "LM555CN_NOPB_0_0"
			(rectangle
				(start -20.32 -15.24)
				(end 20.32 15.24)
				(stroke
					(width 0.254)
					(type default)
				)
				(fill
					(type background)
				)
			)
			(pin power_in line
				(at 25.4 -12.7 180)
				(length 5.08)
				(name "GND"
					(effects
						(font
							(size 1.016 1.016)
						)
					)
				)
				(number "1"
					(effects
						(font
							(size 1.016 1.016)
						)
					)
				)
			)
			(pin input line
				(at -25.4 -5.08 0)
				(length 5.08)
				(name "TRIGGER"
					(effects
						(font
							(size 1.016 1.016)
						)
					)
				)
				(number "2"
					(effects
						(font
							(size 1.016 1.016)
						)
					)
				)
			)
			(pin output line
				(at 25.4 5.08 180)
				(length 5.08)
				(name "OUTPUT"
					(effects
						(font
							(size 1.016 1.016)
						)
					)
				)
				(number "3"
					(effects
						(font
							(size 1.016 1.016)
						)
					)
				)
			)
			(pin input line
				(at -25.4 0 0)
				(length 5.08)
				(name "RESET"
					(effects
						(font
							(size 1.016 1.016)
						)
					)
				)
				(number "4"
					(effects
						(font
							(size 1.016 1.016)
						)
					)
				)
			)
			(pin input line
				(at -25.4 5.08 0)
				(length 5.08)
				(name "CONTROL_VOLTAGE"
					(effects
						(font
							(size 1.016 1.016)
						)
					)
				)
				(number "5"
					(effects
						(font
							(size 1.016 1.016)
						)
					)
				)
			)
			(pin input line
				(at -25.4 -2.54 0)
				(length 5.08)
				(name "THRESHOLD"
					(effects
						(font
							(size 1.016 1.016)
						)
					)
				)
				(number "6"
					(effects
						(font
							(size 1.016 1.016)
						)
					)
				)
			)
			(pin input line
				(at -25.4 2.54 0)
				(length 5.08)
				(name "DISCHARGE"
					(effects
						(font
							(size 1.016 1.016)
						)
					)
				)
				(number "7"
					(effects
						(font
							(size 1.016 1.016)
						)
					)
				)
			)
			(pin power_in line
				(at -25.4 12.7 0)
				(length 5.08)
				(name "V+"
					(effects
						(font
							(size 1.016 1.016)
						)
					)
				)
				(number "8"
					(effects
						(font
							(size 1.016 1.016)
						)
					)
				)
			)
		)
	)
)
