%TF.GenerationSoftware,KiCad,Pcbnew,7.0.10*%
%TF.CreationDate,2024-05-08T12:57:30+03:00*%
%TF.ProjectId,TrialLedsPcbEs,54726961-6c4c-4656-9473-50636245732e,rev?*%
%TF.SameCoordinates,PX83d8710PY564eba0*%
%TF.FileFunction,Profile,NP*%
%FSLAX46Y46*%
G04 Gerber Fmt 4.6, Leading zero omitted, Abs format (unit mm)*
G04 Created by KiCad (PCBNEW 7.0.10) date 2024-05-08 12:57:30*
%MOMM*%
%LPD*%
G01*
G04 APERTURE LIST*
%TA.AperFunction,Profile*%
%ADD10C,0.100000*%
%TD*%
%TA.AperFunction,Profile*%
%ADD11C,0.050000*%
%TD*%
%TA.AperFunction,Profile*%
%ADD12C,0.010000*%
%TD*%
G04 APERTURE END LIST*
D10*
X-3376000Y-3000000D02*
X-3376000Y24700000D01*
X-3376000Y24700000D02*
X23802000Y24700000D01*
D11*
X37730000Y27518000D02*
X37730000Y27518000D01*
D10*
X23802000Y24700000D02*
X23802000Y-3000000D01*
X-332563216Y155271072D02*
X-332563216Y155271072D01*
X23802000Y-3000000D02*
X-3376000Y-3000000D01*
D12*
%TO.C,D3*%
X21500000Y-150000D02*
X19400000Y-150000D01*
X21500000Y2150000D02*
X21500000Y-150000D01*
X19400000Y-150000D02*
X19400000Y2150000D01*
X19400000Y2150000D02*
X21500000Y2150000D01*
%TO.C,D2*%
X21550000Y9850000D02*
X19450000Y9850000D01*
X21550000Y12150000D02*
X21550000Y9850000D01*
X19450000Y9850000D02*
X19450000Y12150000D01*
X19450000Y12150000D02*
X21550000Y12150000D01*
%TO.C,D1*%
X21550000Y19850000D02*
X19450000Y19850000D01*
X21550000Y22150000D02*
X21550000Y19850000D01*
X19450000Y19850000D02*
X19450000Y22150000D01*
X19450000Y22150000D02*
X21550000Y22150000D01*
%TD*%
M02*
